{
    "name": "ProductOrder",
    "fields": [
        {
            "fieldName": "placedDate",
            "fieldType": "Instant",
            "fieldValidateRules": [
                "required"
            ]
        },
        {
            "fieldName": "status",
            "fieldType": "OrderStatus",
            "fieldValues": "COMPLETED,PENDING,CANCELLED",
            "fieldValidateRules": [
                "required"
            ]
        },
        {
            "fieldName": "code",
            "fieldType": "String",
            "fieldValidateRules": [
                "required"
            ]
        }
    ],
    "relationships": [
        {
            "relationshipType": "one-to-many",
            "otherEntityName": "orderItem",
            "otherEntityRelationshipName": "order",
            "relationshipName": "orderItem"
        },
        {
            "relationshipType": "one-to-many",
            "otherEntityName": "invoice",
            "otherEntityRelationshipName": "order",
            "relationshipName": "invoice"
        },
        {
            "relationshipType": "many-to-one",
            "otherEntityName": "customer",
            "otherEntityRelationshipName": "order",
            "relationshipName": "customer",
            "otherEntityField": "mail"
        }
    ],
    "changelogDate": "20190423103826",
    "entityTableName": "product_order",
    "dto": "no",
    "pagination": "no",
    "service": "no",
    "jpaMetamodelFiltering": false,
    "fluentMethods": true,
    "clientRootFolder": "",
    "applications": "*"
}